[npc]
NULL
down
0
2
11
NULL
0
-1
0,1
false
false
false
[/npc]
[npc]
NULL
down
0
10
14
NULL
0
-1
2,3
false
false
false
[/npc]
[npc]
NULL
down
0
4
20
NULL
0
-1
4,5,6
false
false
false
[/npc]
[npc]
NULL
down
0
13
1
NULL
0
-1
7,8
false
false
false
[/npc]
[warp]
19
20
15
16
-32
-40
0
[/warp]
[warp]
13
14
4
8
-32
-41
0
[/warp]
[warp]
20
14
3
9
-32
-42
0
[/warp]
[warp]
8
20
30
60
-32
-43
0
[/warp]
