[npc]
Advisor
down
344
24
41
NULL
0
-1
1,2,3,4
false
false
false
[/npc]
[npc]
Giovani
down
330
23
11
Rhyhorn,45,Dugtrio,42,Nidoqueen,54,Nidoking,54,Rhyhorn,50
5
7
13,14
false
false
false
[/npc]
[warp]
23
44
36
11
3
-1
0
[/warp]
