[warp]
4
4
5
4
-35
-38
0
[/warp]
[warp]
28
8
13
12
-32
-35
0
[/warp]
[warp]
7
30
3
4
-35
-40
0
[/warp]
[warp]
21
30
16
4
-35
-40
0
[/warp]
[warp]
28
30
6
7
-35
-39
0
[/warp]
[warp]
12
26
7
13
-35
-43
0
[/warp]
[warp]
34
3
17
4
-32
-35
0
[/warp]
[warp]
24
21
11
5
-35
-43
0
[/warp]
[warp]
17
20
7
5
-35
-41
0
[/warp]
[warp]
18
11
26
25
-50
-19
0
[/warp]
[warp]
19
11
26
25
-50
-19
0
[/warp]
[warp]
20
11
27
25
-50
-19
0
[/warp]