[npc]
Flannery
down
48
16
29
Slugma,50,Numel,50,Camerupt,50,Torkoal,50
4
19
0
false
false
false
[/npc]
[warp]
16
41
5
56
25
20
0
[/warp]
[warp]
17
41
5
56
25
20
0
[/warp]
[warp]
11
30
38
30
-46
47
0
[/warp]
[warp]
38
30
11
30
-46
47
0
[/warp]
[warp]
31
37
5
36
-46
47
0
[/warp]
[warp]
5
36
31
37
-46
47
0
[/warp]
[warp]
3
31
30
32
-46
47
0
[/warp]
[warp]
30
32
3
31
-46
47
0
[/warp]
[warp]
30
27
3
27
-46
47
0
[/warp]
[warp]
3
27
30
27
-46
47
0
[/warp]
[warp]
5
25
32
24
-46
47
0
[/warp]
[warp]
32
24
5
25
-46
47
0
[/warp]
[warp]
37
23
10
24
-46
47
0
[/warp]
[warp]
10
24
37
23
-46
47
0
[/warp]
[warp]
13
27
40
27
-46
47
0
[/warp]
[warp]
42
34
15
33
-46
47
0
[/warp]
[warp]
15
33
42
34
-46
47
0
[/warp]