[npc]
Nurse Joy
down
157
15
10
NULL
0
-1
0
false
false
false
[/npc]
[npc]
NULL
down
157
15
11
NULL
0
-1
1
true
false
false
[/npc]
[npc]
NULL
down
157
19
9
NULL
0
-1
2
false
true
false
[/npc]
[warp]
15
17
34
6
-2
0
0
[/warp]
[npc]
Spriter
down
171
21
10
NULL
0
-1
3
false
false
false
[/npc]