[npc]
Shop Keeper
right
185
3
3
NULL
0
-1
0
FALSE
FALSE
FALSE
[/npc]
[npc]
NULL
down
0
4
3
NULL
0
-1
1
FALSE
FALSE
TRUE
[/npc]
[npc]
NULL
down
0
3
4
NULL
0
-1
1
FALSE
FALSE
TRUE
[/npc]
[warp]
5
8
9
18
-3
-2
0
[/warp]
