[warp]
28
27
5
7
7
-50
0
[/warp]
[warp]
23
19
15
16
7
-49
0
[/warp]
[warp]
52
19
37
19
-31
45
0
[/warp]
[warp]
54
13
15
24
-31
44
0
[/warp]
[warp]
22
8
8
9
-38
-26
0
[/warp]
[warp]
36
11
10
8
-38
-30
0
[/warp]
[warp]
28
19
21
14
-38
-36
0
[/warp]
[warp]
38
19
10
8
-38
-41
0
[/warp]
[warp]
11
7
13
11
-41
-21
0
[/warp]


