[warp]
22
19
15
16
-48
-30
0
[/warp]
[warp]
28
28
5
7
-48
-29
0
[/warp]
[warp]
31
21
23
35
-49
-24
0
[/warp]
[warp]
13
28
6
8
-49
-23
0
[/warp]
[warp]
14
28
7
8
-49
-23
0
[/warp]
[warp]
23
28
5
7
-49
-22
0
[/warp]
[warp]
15
17
5
7
-49
-21
0
[/warp]
[warp]
17
11
5
7
-49
-20
0
[/warp]
[warp]
10
11
4
7
-49
-19
0
[/warp]
[warp]
10
8
4
2
-49
-19
0
[/warp]
[warp]
30
11
4
7
-50
-32
0
[/warp]
[warp]
31
8
5
2
-50
-32
0
[/warp]
[npc]
NULL
down
0
16
28
NULL
0
-1
0,1
false
false
false
[/npc]
[npc]
NULL
down
0
20
26
NULL
0
-1
2
false
false
false
[/npc]
[npc]
NULL
down
0
27
21
NULL
0
-1
3,4,5
false
false
false
[/npc]
[npc]
NULL
down
0
19
33
NULL
0
-1
6,7,8
false
false
false
[/npc]
[hmobject]
CUT_TREE
26
33
[/hmobject]
[warp]
1
12
45
32
45
5
16
[/warp]
[npc]
Police Man
down
36
2
13
NULL
0
-1
9,10
false
false
false
[/npc]